%YAML 1.1
%TAG !u! tag:unity3d.com,2011:
--- !u!1045 &1
EditorBuildSettings:
  m_ObjectHideFlags: 0
  serializedVersion: 2
  m_Scenes:
  - enabled: 1
    path: Assets/Scenes/BootstrapScene.unity
    guid: 869b502ff192b35459f0b33a01c21c6d
  - enabled: 1
    path: Assets/Scenes/MazeConfigurationScene.unity
    guid: ff76de4294a233e41b826d24a7936e7c
  - enabled: 1
    path: Assets/Scenes/MazeGameplayScene.unity
    guid: 88f5f19a5eb7c8e4da2f8a7a75368b44
  - enabled: 1
    path: Assets/Scenes/Maze2D.unity
    guid: 60a7b1e8385662c49bec4fba984306d6
  m_configObjects: {}
